208C720A424488E10$2$0.0.20$9
431832024C4FD8CE0$3$0.0.26$9
08028190620FF0080$4$0.0.18$8
321E62841081E0$5$0.0.18$8
3C0FE244488DB09C0$6$0.0.27$8
80106238580E00$7$0.0.14$8
6E1F2244488FF0080$8$0.0.26$8
7909B21262C7F0100$9$0.0.26$9
7F08320220C3F0$0$0.0.21$9
401C03FC0$1$0.0.12$8
